Tiempo (seg): 42	 Magnitud: 2.17547617304
Tiempo (seg): 8	 Magnitud: 0.828778275675
Tiempo (seg): 10	 Magnitud: 1.01
Tiempo (seg): 6	 Magnitud: 0.595142838217
Tiempo (seg): 35	 Magnitud: 2.02740724294
Tiempo (seg): 42	 Magnitud: 2.17547617304
Tiempo (seg): 39	 Magnitud: 2.11529081514
Tiempo (seg): 27	 Magnitud: 1.81665023898
Tiempo (seg): 39	 Magnitud: 2.11529081514
Tiempo (seg): 37	 Magnitud: 2.07253722401
Tiempo (seg): 47	 Magnitud: 2.26682299434
Tiempo (seg): 46	 Magnitud: 2.24935714524
Tiempo (seg): 45	 Magnitud: 2.23150740076
Tiempo (seg): 34	 Magnitud: 2.00386557487
Tiempo (seg): 41	 Magnitud: 2.15590581207
Tiempo (seg): 47	 Magnitud: 2.26682299434
Tiempo (seg): 35	 Magnitud: 2.02740724294
Tiempo (seg): 44	 Magnitud: 2.21325650503
